<?xml version="1.0" encoding="UTF-8" standalone="no"?>
<svg
   width="365.16449mm"
   height="135.40625mm"
   viewBox="0 0 365.16449 135.40625"
   version="1.1"
   id="svg8"
   inkscape:version="1.2.2 (b0a8486541, 2022-12-01)"
   sodipodi:docname="plant.svg"
   xmlns:inkscape="http://www.inkscape.org/namespaces/inkscape"
   xmlns:sodipodi="http://sodipodi.sourceforge.net/DTD/sodipodi-0.dtd"
   xmlns="http://www.w3.org/2000/svg"
   xmlns:svg="http://www.w3.org/2000/svg"
   xmlns:rdf="http://www.w3.org/1999/02/22-rdf-syntax-ns#"
   xmlns:cc="http://creativecommons.org/ns#"
   xmlns:dc="http://purl.org/dc/elements/1.1/">
  <defs
     id="defs2" />
  <sodipodi:namedview
     id="base"
     pagecolor="#ffffff"
     bordercolor="#666666"
     borderopacity="1.0"
     inkscape:pageopacity="0.0"
     inkscape:pageshadow="2"
     inkscape:zoom="0.98994949"
     inkscape:cx="689.93419"
     inkscape:cy="222.73864"
     inkscape:document-units="mm"
     inkscape:current-layer="layer1"
     inkscape:document-rotation="0"
     showgrid="false"
     inkscape:showpageshadow="0"
     inkscape:pagecheckerboard="0"
     inkscape:deskcolor="#505050"
     inkscape:window-width="1920"
     inkscape:window-height="1018"
     inkscape:window-x="0"
     inkscape:window-y="708"
     inkscape:window-maximized="1" />
  <metadata
     id="metadata5">
    <rdf:RDF>
      <cc:Work
         rdf:about="">
        <dc:format>image/svg+xml</dc:format>
        <dc:type
           rdf:resource="http://purl.org/dc/dcmitype/StillImage" />
        <dc:title />
      </cc:Work>
    </rdf:RDF>
  </metadata>
  <g
     inkscape:label="Layer 1"
     inkscape:groupmode="layer"
     id="layer1"
     transform="translate(821.43323,-386.53015)">
    <rect
       style="fill:#d1cecb;stroke:none;stroke-width:1.167;stroke-linecap:round;paint-order:markers fill stroke;fill-opacity:1"
       id="rect343"
       width="365.16449"
       height="135.40625"
       x="-821.43323"
       y="386.53015"
       ry="7.9375" />
    <g
       aria-label="stolon"
       transform="matrix(0.76606175,0,0,1.0166989,-74.979202,53.408757)"
       id="text921"
       style="font-size:19.0009px;line-height:1.15;font-family:'Happy Times at the IKOB New Game Plus Edition';-inkscape-font-specification:'Happy Times at the IKOB New Game Plus Edition';font-variant-ligatures:no-contextual;fill:#ff0000;stroke:none;stroke-width:1.13311;stroke-linejoin:round;stroke-miterlimit:4;stroke-dasharray:none;paint-order:stroke fill markers">
      <path
         d="m -712.66382,352.59535 v -3.04014 h -0.68403 v 0.38002 h -0.19001 c -0.34202,-0.11401 -1.10205,-0.38002 -1.93809,-0.38002 -1.63408,0 -2.85014,1.08305 -2.85014,2.54612 0,1.59607 0.98805,2.26111 2.41312,3.07814 1.12105,0.62703 2.29911,1.08306 2.29911,2.24211 0,0.83604 -0.55103,1.29206 -1.44407,1.29206 -1.61508,0 -2.62213,-1.19706 -2.62213,-2.50812 v -0.41802 h -0.68403 v 3.45817 h 0.68403 v -0.53203 h 0.19001 c 0.30402,0.19001 1.10206,0.72204 2.43212,0.72204 1.82408,0 3.11615,-0.81704 3.11615,-2.62213 0,-1.71008 -1.17806,-2.47012 -3.21116,-3.49616 -1.12105,-0.58903 -1.65307,-0.98805 -1.65307,-1.78609 0,-0.81704 0.51302,-1.25406 1.44406,-1.25406 1.17806,0 2.0141,0.76004 2.0141,1.67208 v 0.64603 z"
         style="fill:#ff0000;stroke:none;stroke-width:1.13311"
         id="path1132" />
      <path
         d="m -707.31863,347.65512 h -0.19001 l -2.96414,2.66012 0.19001,0.19001 h 1.17806 v 6.76432 c 0,1.55808 0.57002,2.16611 1.74808,2.16611 1.17806,0 2.0521,-1.06405 2.50812,-1.59608 l -0.30401,-0.64603 c -0.34202,0.45602 -0.72204,0.91204 -1.33007,0.91204 -0.64603,0 -0.83604,-0.38002 -0.83604,-0.98804 v -6.61232 h 2.20411 v -0.76003 h -2.20411 z"
         style="fill:#ff0000;stroke:none;stroke-width:1.13311"
         id="path1134" />
      <path
         d="m -703.74675,354.49544 c 0,2.96414 1.86208,4.94024 4.59821,4.94024 2.77413,0 4.59822,-2.0901 4.59822,-4.97824 0,-2.92614 -1.86209,-4.90223 -4.59822,-4.90223 -2.77413,0 -4.59821,2.1091 -4.59821,4.94023 z m 2.09009,-0.57003 c 0,-2.1661 0.79804,-3.64817 2.28011,-3.64817 1.91909,0 2.73613,2.20411 2.73613,4.75023 0,2.2041 -0.79804,3.68617 -2.28011,3.68617 -1.90009,0 -2.73613,-2.2041 -2.73613,-4.78823 z"
         style="fill:#ff0000;stroke:none;stroke-width:1.13311"
         id="path1136" />
      <path
         d="m -691.91424,358.40963 -0.19001,0.19001 h -1.29206 v 0.64603 h 4.63622 v -0.64603 h -1.17806 l -0.19001,-0.19001 v -13.41464 l -0.19,-0.19001 -3.11615,1.40607 0.30401,0.64603 1.02605,-0.45602 0.19001,0.19001 z"
         style="fill:#ff0000;stroke:none;stroke-width:1.13311"
         id="path1138" />
      <path
         d="m -687.26941,354.49544 c 0,2.96414 1.86209,4.94024 4.59822,4.94024 2.77413,0 4.59821,-2.0901 4.59821,-4.97824 0,-2.92614 -1.86208,-4.90223 -4.59821,-4.90223 -2.77414,0 -4.59822,2.1091 -4.59822,4.94023 z m 2.0901,-0.57003 c 0,-2.1661 0.79803,-3.64817 2.28011,-3.64817 1.91909,0 2.73612,2.20411 2.73612,4.75023 0,2.2041 -0.79803,3.68617 -2.2801,3.68617 -1.90009,0 -2.73613,-2.2041 -2.73613,-4.78823 z"
         style="fill:#ff0000;stroke:none;stroke-width:1.13311"
         id="path1140" />
      <path
         d="m -675.06579,358.40963 -0.19,0.19001 h -1.29207 v 0.64603 h 4.63622 v -0.64603 h -1.17805 l -0.19001,-0.19001 v -6.3083 c 0.22801,-0.38002 1.02605,-1.36807 2.1281,-1.36807 1.10205,0 1.55807,0.76004 1.55807,1.78609 v 5.89028 l -0.19,0.19001 h -1.17806 v 0.64603 h 4.52221 v -0.64603 h -1.17805 l -0.19001,-0.19001 v -6.1943 c 0,-1.82408 -1.14006,-2.66012 -2.47012,-2.66012 -1.52007,0 -2.39411,0.91204 -2.92614,1.63407 h -0.19001 l 0.13301,-1.44406 -0.19001,-0.19001 -3.13515,1.36806 0.30402,0.64603 1.02605,-0.43702 0.19,0.19001 z"
         style="fill:#ff0000;stroke:none;stroke-width:1.13311"
         id="path1142" />
    </g>
    <g
       style="stroke:#000000;stroke-width:0.566555;stroke-miterlimit:4;stroke-dasharray:none"
       id="g919"
       transform="matrix(0.88263429,0,0,0.88241998,-74.979202,53.408757)">
      <path
         sodipodi:nodetypes="cscccsscccssccccccccssscssscssssssscccccsccccccccccssccsssssccccccsccccccccsccccssccssscccccccccccsccccccccccccccccccccccccccccccccccccccccsccccssccccccsscccccccccccccccccccccccsccccscccccccccccsssssssscscccccsssccccccccccccccccccccccccccccccccccccccccccccccccccccccccsccccccccccccccccsccsccsccssccccccccccccscccccccccccccscccsccssccccccccsccccccccccsccccccssssscscsssccscsccccssscccsccsccccsscccsccccsssccssccccsc"
         id="path897"
         d="m -677.24969,408.66415 c 0.0368,3.09933 0.26564,6.82784 0.26564,10.05417 0,1.27238 0.003,1.99469 -0.1524,3.175 -0.11509,0.87789 -0.11059,1.54067 -0.11218,2.38125 -0.004,1.98305 -0.0929,3.99071 -0.34026,6.08541 -0.14684,1.24593 -0.10292,2.54609 0.19606,3.175 0.19553,0.41117 0.56541,0.72787 0.61886,1.5875 0.0672,1.08109 -1.02632,2.11932 -1.26841,2.38126 -1.38245,-1.92194 -1.05146,-2.58472 0.26458,-4.23334 m 38.89375,3.70417 c 1.43828,0.0347 2.1344,0.55033 2.91042,0.83529 0.68342,0.25109 1.13506,0.10663 1.5875,0.045 0.88688,-0.12092 1.61396,-0.0384 2.53365,-0.59426 0.38444,-0.23257 0.67866,-0.79084 1.96453,-1.06151 0.4863,-0.10212 1.28826,-0.15557 1.85182,-0.24712 1.02447,-0.16615 2.1418,-0.49344 3.175,-0.58393 2.03541,-0.016 4.20522,-0.76516 5.82083,-0.77391 0.88794,0.003 1.50337,0.0492 2.38125,-0.14605 0.81889,-0.1823 1.32927,-0.32914 2.11667,-0.37465 0.69109,-0.0397 1.16602,-0.0714 1.85208,-0.16166 0.68078,-0.0892 1.12554,-0.0913 1.85209,-0.11615 0.99536,-0.0339 1.58115,-0.322 2.64583,-0.4699 2.03914,-0.28337 4.43442,-0.0154 6.35,-0.0154 0.81068,0 1.30175,-0.005 2.11667,-0.0635 1.76239,-0.12567 2.8911,0.0738 4.49791,0.0601 3.10886,-0.0265 5.37845,0.458 8.20209,0.4916 1.63036,0.0193 3.53589,-0.51805 3.53589,1.06336 0,0.9742 -1.00039,1.21894 -1.68407,1.2147 -2.43999,-0.0153 -5.89651,-0.40746 -8.46641,-0.42571 -1.53088,-0.0109 -3.09059,2.6e-4 -4.49791,7.9e-4 -1.27979,5.3e-4 -2.45296,0.0534 -3.70417,0.0368 -0.77576,-0.0103 -1.28535,-0.0431 -2.11667,-0.0236 -3.15304,0.0741 -6.96462,0.35745 -10.05416,0.78052 -1.01389,0.13891 -1.92273,0.1868 -2.91042,0.27252 -0.85011,0.0738 -1.3118,0.19474 -2.11667,0.29686 -1.21443,0.15399 -2.87258,0.22437 -3.96875,0.22437 v -1.85208 m 88.94893,-34.96877 c -0.61119,0.61622 -1.66952,0.98081 -1.83621,2.91042 -0.14817,1.71026 -0.1561,4.41775 0.0291,6.35 0.20637,2.15873 0.43656,3.59595 0.21166,5.29166 -0.31221,2.35321 -1.59808,2.12964 -2.29923,3.43959 -0.34131,0.63632 -0.79904,2.0021 -1.01071,3.175 -0.33602,1.88066 -0.22225,3.45731 -0.10583,4.76038 0.0185,0.22093 -0.0185,1.06786 0.81756,1.27371 1.24619,0.30612 2.09021,-0.41514 2.34157,-0.51568 0.86254,-0.34448 1.55045,-0.55403 2.64583,-1.03002 1.1139,-0.48366 2.59556,-1.33879 3.43958,-1.84256 m -265.53169,-11.86381 c 0.29368,0.70433 0.72625,1.11496 1.16448,1.58883 -0.45138,0.52334 -1.06344,1.15146 -1.59832,1.17686 -0.42982,0.0201 -1.40761,-0.20187 -2.37043,-0.49371 -1.70349,-0.51646 -1.93561,-1.1422 -2.63337,-2.27065 -0.15809,-0.25559 -0.63008,-0.9951 -0.63431,-1.5875 m 106.19139,9.78958 c 0.17754,1.14856 0.8943,2.98635 1.59624,4.23333 2.02221,3.59252 3.98039,7.34775 6.19971,10.82014 0.90408,1.41473 1.59226,1.21153 2.25901,2.17223 0.84191,1.21311 3.2811,5.266 3.50362,6.85139 0.0987,0.70352 -0.24051,1.13109 -0.61807,1.58088 -0.64717,0.771 -1.0586,1.08823 -1.29963,1.32953 0.87074,0.0757 1.35863,-0.0257 2.64583,-0.79375 0.43603,1.02367 0.41407,2.05767 1.5875,2.11667 m -109.5375,-30.69167 c -0.82474,0.34846 -1.79861,0.54398 -2.64584,0.68157 -0.6306,0.10266 -1.25865,0.11324 -1.73714,0.53631 -1.21989,1.07818 -0.14195,2.0947 0.30826,2.75087 0.6866,1.00066 2.49994,3.03424 3.54555,4.23333 m -4.7625,-12.43545 h 1.85208 m -3.175,1.5875 c 0.10264,1.29857 0.0306,2.61937 1.85209,3.70416 m 22.225,-2.38125 c 1.1385,-0.96281 2.71171,-1.42028 4.45585,-0.23362 l 0.57123,0.49821 c -0.38814,0.27913 -0.8681,0.8247 -2.38125,0.7874 -1.97697,-0.0487 -1.77826,-0.96441 -3.70417,-1.04696 -5.39935,-0.23124 -11.1715,1.31445 -16.40416,1.31789 m 26.9875,-0.79375 c -0.26062,0.22013 -0.79058,1.04643 -1.85103,0.93557 -0.65616,-0.0688 -1.08347,-0.47387 -1.15702,-0.93557 -0.11615,-0.72998 0.63315,-1.08347 1.42081,-0.95885 1.25095,0.19791 0.96864,0.74375 2.38099,1.14988 0.78872,0.22701 3.5642,0.24818 4.18835,0.49768 1.03029,0.41143 0.96626,0.92763 1.90077,1.23666 0.42862,0.14182 1.44251,0.26988 1.64941,-0.42333 0.28072,-0.94059 -0.8501,-1.35572 -1.38853,-1.41182 -0.81783,-0.0852 -1.16311,0.21802 -1.5875,0.43895 m -10.05417,-0.79375 h 1.05833 m 10.84792,0.52916 v 1.5875 m 1.5875,-1.32291 c 1.62349,0.12911 5.95366,1.08955 7.67292,2.11666 -0.65246,0.80725 -0.64267,0.80566 -1.32292,1.5875 1.44569,0.57494 2.01242,-0.15319 2.91042,-1.05833 l -1.32292,-0.52917 m -50.27083,-1.85208 c -0.2322,0.27437 -0.89702,1.02923 -1.11837,2.11667 -0.20055,0.98531 -0.19828,1.81266 -0.20455,2.11666 h 0.79375 l 10e-4,2.38125 0.27072,1.53088 2.37389,1.71689 6.35,8.12932 m 38.10001,-17.19792 -0.26459,0.79375 m -4.49791,-0.26458 c 1.56686,1.13136 4.6556,1.6084 6.87916,2.11666 m -2.64583,-1.5875 -0.52917,0.52917 m 6.35,0 2.91042,1.32292 c -0.59267,1.18163 0.068,1.79837 2.11667,3.175 0.82285,-0.82286 0.81967,-0.81968 1.5875,-1.5875 -0.6403,-0.46382 -1.56105,-1.21206 -2.36591,-1.27847 -1.07659,-0.0886 -1.07976,0.69665 -1.60284,1.54305 m -5.55625,-2.91042 0.26458,0.26459 m -47.88959,0 c -1.17448,0.86042 -1.35683,0.96017 -1.85208,1.32291 m 54.50417,-1.05833 c -0.89614,1.27662 -1.88225,1.91347 -3.70417,0.79375 m 4.7625,-0.26458 0.26459,0.26458 m -56.62084,0.26458 c -0.33605,0.24792 -0.654,0.44847 -1.05955,0.76915 -1.68241,1.33006 -4.08908,5.47185 -6.61337,8.75585 m 61.91251,-8.99583 1.05833,0.79375 m 4.49792,-0.26458 1.85208,0.79375 c -1.06177,1.01573 -1.50945,1.574 -3.175,0.79375 m 3.175,-0.79375 c 3.38667,0.84428 7.76658,3.02604 10.84792,4.7625 -0.97923,0.97922 -0.96706,0.96705 -1.5875,1.5875 0.98292,0.85169 1.4044,1.12606 2.64583,1.32291 0.007,-0.97287 0.56753,-2.40559 -1.05833,-2.91041 m 72.49583,-4.23334 c -0.53446,0.5297 -0.92869,1.15332 -2.38125,2.02354 -0.95726,0.57361 -2.57069,1.36684 -3.70416,1.99152 -3.16654,1.74545 -6.7863,3.91742 -9.22894,6.41614 -1.13109,1.15729 -0.87233,1.54226 -1.38086,2.53207 -0.46222,0.90037 -3.42132,5.18027 -4.3307,6.01186 -0.84402,0.77205 -2.34738,0.0873 -3.05117,0.41275 -1.20359,0.55668 -1.03981,0.84164 -2.53365,1.42187 -1.00436,0.39026 -2.3704,1.04193 -2.49344,1.15067 m -55.29791,-20.6375 c 1.3155,0.47149 2.33971,1.56686 3.68855,1.4441 0.93028,-0.0844 0.94959,-0.66464 1.07395,-1.4441 m -64.82292,0.52917 c 0,0.6395 0.002,1.33165 0,2.11666 -0.001,0.67945 0.027,1.51395 -0.2707,2.07169 -0.58388,1.09405 -0.90032,0.95012 -1.70307,2.4265 -1.16628,2.14497 -2.69462,4.59581 -3.05332,6.61432 m 71.17292,-13.22917 c -0.81544,0.85196 -0.81386,0.85407 -1.32291,1.5875 1.64809,1.07341 4.03965,2.19207 5.55625,2.38125 m -6.08542,-2.91042 0.52917,0.52917 m 186.84476,-0.83752 5.02708,1.85208 c -0.64294,2.25531 -1.15623,3.90155 -2.25954,6.61459 -0.26723,0.65908 -0.83079,1.35863 -1.1774,2.11667 -0.082,0.17621 -0.18785,0.63288 -0.27781,1.32291 -0.11377,0.88212 -0.11112,1.54808 -1.06362,1.68513 -0.57679,0.0828 -1.1139,-0.47704 -1.56104,-0.88582 -0.53711,-0.49371 -0.98161,-0.97711 -1.06892,-1.06389 0.99748,-0.84746 1.44198,-1.38113 3.70417,-1.05833 m 4.23333,-9.78959 -0.26458,0.79375 m -183.66977,0.83752 c 1.94178,0.57573 1.54834,1.99972 0,2.38125 m 1.5875,-1.5875 c 1.61396,0.17436 3.66713,0.83344 4.52094,1.99734 0.5244,0.71437 0.16351,1.40864 -0.2876,2.23599 1.68751,1.30493 4.68815,2.63393 7.14375,3.85921 0.82285,0.4109 3.0308,1.72429 3.8092,1.1557 1.71715,-1.25439 -0.84799,-2.89507 -1.95712,-3.45016 -1.41843,-0.71014 -4.84214,-2.27595 -6.16082,-2.93899 -0.77259,-0.38868 -1.39092,-0.42413 -2.04126,-0.47784 m -79.90417,-1.85209 c 1.45999,2.14287 2.01758,7.54804 3.24768,11.11251 0.6731,1.9505 0.71395,3.90472 0.45648,5.29166 m 74.61251,-15.34583 c -0.57838,0.78925 -0.63447,0.91255 -1.32292,1.85208 0.95382,0.51435 1.18031,0.48525 1.85208,0.52917 m -4.7625,-2.11667 c 0.86413,0.67892 1.39859,1.11734 2.91042,1.5875 m 117.21042,-0.52917 v 2.11667 m 6.35,-2.11667 v 1.85209 m 12.17083,-1.32292 c 1.79732,-0.52546 3.28904,0.0381 5.29167,0.26406 0.7792,0.0878 2.02221,0.13282 2.91042,0.29686 0.89694,0.16563 1.40044,1.18877 2.91041,1.21391 2.02751,0.0339 1.5711,-0.92181 3.96875,-0.56304 1.13983,0.17066 1.50337,0.32809 1.85209,0.51964 0.77046,0.42307 1.05674,0.79084 3.175,0.95806 2.73209,0.21564 1.64994,-0.64558 3.70416,-0.55218 1.24699,0.0566 2.08624,0.99562 2.91042,1.29381 0.66913,0.24209 1.38271,0.25426 2.11667,0.27305 0.70035,0.0177 1.14168,0.0553 1.85208,0.22754 2.58498,0.6268 2.26219,-0.76385 4.23334,-0.39979 1.53987,0.28417 -10.52648,0.66135 -8.94691,0.98229 m -23.33226,-4.24963 c -0.12859,1.68725 -1.23746,1.84653 -2.38125,1.5875 m -62.17709,2.89878 c -0.31697,0.29713 -0.6133,0.73184 -1.5875,1.14856 -0.51064,0.21854 -3.11864,0.77867 -2.49423,2.26351 0.49689,1.18189 1.78224,0.64928 2.75882,0.4654 1.4941,-0.28125 2.3278,-0.61092 2.91041,-1.05966 2.8202,-2.17249 3.58405,-3.4798 4.7625,-4.65825 m 60.58959,-2.38125 c 0.16272,1.04113 0.78978,1.68963 2.11666,1.82668 1.83701,0.18944 2.38125,-0.33179 2.91042,-0.76835 m -3.43958,-1.05833 v 1.5875 m -40.48125,-1.32292 v 1.5875 m 38.89375,-0.79375 c -0.82868,0.44424 -1.10464,0.50059 -2.11667,0.52917 m -88.37084,2.38125 -1.32291,-1.32292 c 1.04325,-1.10463 1.60073,-1.1348 2.38125,-1.32292 m 96.30833,0 c 0.26565,0.2458 0.51171,0.53632 0.83609,0.75222 2.00713,1.33455 4.16242,0.40745 4.98475,-0.22305 m -62.70625,-0.26458 c -0.004,-0.1569 -0.0111,0.4437 0.0265,0.83502 0.10134,1.0631 0.38259,1.67376 1.82563,1.01706 -0.50906,-1.04643 -0.45932,-1.15543 -0.52917,-1.85208 m -60.06042,0.26458 0.52917,2.64584 1.32292,-1.32292 m 123.56042,-0.79375 c 0.64426,0.59558 1.77244,1.79467 3.6621,0.9443 l 0.57123,-0.41513 m -117.21042,5.82083 c 0.47943,-1.76027 3.07155,-4.62492 4.49792,-6.08542 m 47.09583,0 -3.43958,0.79375 m 84.45101,-1.1021 c 0.40481,0.50589 0.93133,1.35943 0.78846,2.64584 -0.0688,0.59584 -0.1905,0.92286 -0.26459,1.05701 -0.3757,0.67151 -0.84402,1.09855 -1.31762,1.58882 1.88119,1.50733 2.18546,0.98716 3.58246,2.17223 2.46856,2.09682 5.17525,5.72294 3.56129,8.94027 m -142.39476,-15.83123 -0.2712,2.91041 -0.25691,2.90989 -10e-4,1.85261 m 46.83125,-7.67291 c 0.47705,0.44079 0.93398,1.44806 3.175,1.05833 m -76.72917,-0.52917 c 1.09141,0.23389 1.76874,0.53631 2.91042,1.32292 -0.75036,0.86016 -0.83714,0.99192 -1.5875,1.85208 1.51659,1.18719 2.62943,1.7227 3.70417,0 l 1.05833,1.05834 0.52917,-1.32292 c -1.17713,-0.42704 -1.25016,-0.19765 -1.5875,0.26458 m 29.36875,-2.91041 1.05833,1.05833 m 119.06251,-1.05833 c 0.26458,0.24421 1.02922,1.15596 2.11666,1.27873 1.12713,0.127 1.88119,-0.57997 2.11667,-0.74957 m -139.96459,0.26459 c 0.25797,1.63274 1.19486,1.31471 2.11667,0.52916 v 0 m 12.7,-0.52916 1.32291,1.32291 m -31.75,-1.05833 2.11667,1.05833 m -5.82083,-0.26458 1.85208,1.05833 m 31.22083,-0.79375 0.79375,0.26459 m -11.64166,0 -1.05834,0.52916 m -1.05833,-0.26458 1.85208,4.23333 c 0.74084,-0.84931 0.82021,-0.97234 1.5875,-1.85208 m 3.96875,7.67292 c -1.2274,3.68802 -0.56171,4.62703 0,5.29166 0.36143,-0.38735 0.76359,-0.63288 1.38695,-1.85261 0.26035,-0.50959 0.69559,-1.45336 1.30863,-1.89309 1.12183,-0.80434 2.31246,-0.8816 3.65442,-1.42664 0.78635,-0.31909 1.5375,-0.99033 2.38125,-1.28772 0.84826,-0.29898 1.17978,-0.17569 2.11667,-0.47969 2.8075,-0.91149 7.9293,-2.58736 10.31875,-4.17275 -0.43656,-0.89006 -1.09987,-1.53961 0.063,-2.33786 1.54861,-1.06309 5.19298,-1.63988 7.08078,-1.89547 m -48.68333,0.26458 c 2.83739,0.18812 7.49379,3.18347 10.05416,4.59529 0.86334,0.47598 2.07169,1.02314 2.91042,1.29566 1.02976,0.33443 1.56184,0.35401 2.11667,0.45905 m 11.90625,-6.35 0.52916,0.52917 m -2.64583,0 c 0.66675,0.66675 0.75195,0.75194 1.5875,1.5875 m 127.5781,-1.89585 c -0.42069,0.46037 -0.92869,0.82312 -1.5875,2.11667 -0.48948,0.95382 -0.69586,1.87536 -0.98161,2.91041 -0.57679,2.09815 -0.37571,4.41881 -0.34131,6.35 m 3.96875,-11.1125 0.79375,0.52917 m -156.41768,0.0438 c 0.007,0.26405 -0.13335,0.69638 0.23521,1.25703 0.36672,0.55801 1.01018,0.78846 1.61687,1.1094 1.67667,0.88635 4.92364,3.23374 6.86859,3.24485 1.51712,0.008 1.35572,-0.9107 2.12725,-1.90712 m -12.7,-3.43958 1.5875,0.79375 m 16.66875,-0.79375 c -0.78132,0.78131 -0.55192,0.55192 -1.32292,1.32292 m 34.925,-0.79375 c -1.98464,1.14987 -5.66526,2.00025 -7.9375,2.11666 m -2.11667,0.79375 c -0.66145,-1.09379 -0.66939,-1.20888 -1.05833,-1.85208 0.82471,-0.50165 1.24857,-0.71887 2.38125,-0.79375 m 115.14268,-0.30835 c 0.22489,1.20835 0.40481,2.88925 -0.12171,3.96875 -0.42598,0.87339 -0.7964,1.14538 -0.91281,2.64583 -0.34131,4.42384 -0.2884,9.10881 0.24077,12.7 m -126.52015,-12.92048 c -0.0976,-1.04061 -0.15055,-1.77483 0.81015,-2.39872 1.76636,-1.14697 7.37024,-2.67176 8.97943,-2.89295 m -13.22917,0.52917 c -0.50852,1.59385 -1.94124,2.50084 -1.05939,3.52081 0.44662,0.51673 1.20783,0.22489 1.85314,0.11694 0.84985,-0.14208 1.7616,-0.34263 2.38125,-0.46275 m -10.58333,-2.64584 0.79375,0.79375 m -3.70417,-0.52916 0.26459,1.5875 m 6.61458,-1.5875 c 0.42572,0.42571 0.54002,0.54001 1.85208,1.85208 m -3.175,-1.32292 c 0.3519,0.4027 0.55457,0.83238 1.61105,1.83224 0.58632,0.55483 1.41817,0.65273 1.82854,0.54901 m 132.34059,-1.36668 c 0.47096,0.52996 0.93134,0.93927 1.21973,1.85261 0.53711,1.70947 1.24619,6.06981 1.62719,8.20156 0.19315,1.08981 0.50535,2.12566 0.61119,3.175 0.0847,0.81068 0.21166,1.33958 0.46831,2.11666 0.26458,0.80645 0.46831,1.39621 0.79375,2.11667 0.81756,1.80446 1.89971,2.65774 3.48192,3.70417 m -155.62393,-20.06457 c 1.56316,1.19697 3.28639,1.83541 5.02708,2.8231 0.77549,0.43974 1.90474,0.83741 2.48629,1.53485 0.82497,0.98954 0.4019,2.59874 0.42545,3.84413 0.0497,2.6588 1.22026,2.80591 2.11534,3.70417 0.69004,-0.74613 1.26895,-1.19856 1.5875,-3.70417 m -1.85208,-7.14375 c -0.28178,1.75604 -1.28746,2.36009 -1.85208,3.175 m 2.11666,7.67294 c -2.6e-4,1.60496 -0.12435,2.35691 -0.24209,3.70417 -0.0296,0.33972 -0.072,1.14088 -0.29448,1.54252 -0.43365,0.7829 -0.80804,0.9054 -1.05489,1.12448 -0.69718,0.61859 -1.5674,0.88661 -2.14234,3.41841 -0.60139,2.64769 -0.17727,4.24948 -0.65616,6.87917 -0.086,0.47307 -0.24792,1.16126 -0.53129,1.55337 -1.28984,1.78514 -2.04575,0.58552 -2.21085,3.20913 -0.0688,1.09088 -0.01,1.93463 -0.23469,2.91042 -0.28469,1.23454 -0.70247,2.61884 -1.27053,3.70416 -0.35295,0.67416 -0.7784,1.43854 -1.44462,2.01269 -1.19777,1.03214 -1.47003,0.60404 -2.66991,1.97061 -2.84295,3.23798 -5.26548,7.98698 -6.03356,11.8917 m 18.52083,-38.36458 c 0.76756,0.79322 1.50839,2.51037 2.20028,3.15119 0.59769,0.55377 1.22925,0.47625 1.98781,2.14153 0.76227,1.6727 2.42041,6.42462 3.33798,8.46561 0.6522,1.45045 1.07924,2.7731 1.55284,4.23334 1.15729,3.56711 2.55138,8.07693 3.35651,11.1125 m -10.84792,-26.19375 c -0.33126,0.46064 -0.75486,0.76252 -0.79269,2.38125 -0.0389,1.64967 -0.41619,3.18293 -0.81492,4.7625 -0.33708,1.33508 0.006,2.25398 0.0201,3.70416 0.0164,1.6772 0.88344,4.32091 1.26153,5.82084 0.22278,0.88318 0.40905,1.50627 0.88239,2.37622 0.8345,1.53432 1.43087,1.36128 2.23758,2.91677 1.12078,2.16032 1.49648,4.79716 1.8161,7.14242 0.24183,1.77589 0.41619,3.4044 0.41698,5.29167 5.3e-4,1.09511 0.0101,2.65721 -10e-4,3.70417 -0.008,0.7231 -0.0664,1.30439 -0.15135,2.11666 -0.13149,1.26233 0.0638,2.11111 0.31803,3.43959 0.36222,1.89362 0.7964,5.28902 1.15729,7.14375 m -11.37708,-44.45 c 1.10516,0.79877 1.61819,0.65352 2.91041,1.5875 m -3.96875,2.11666 c 0.90673,1.69916 0.52917,4.65561 0.52917,8.73125 0,0.95303 0.1225,2.14683 -0.15954,2.90645 -0.44874,1.20888 -1.16311,1.50733 -1.50495,2.14418 -0.5342,0.9959 -0.88609,2.74691 -0.98134,3.94521 m 9.26041,-7.67292 c -0.38179,0.53075 -0.84375,0.88926 -0.76887,2.38125 0.0601,1.19512 0.37703,4.83685 0.48074,6.35 0.18997,2.77574 -0.73686,5.43851 -0.46037,8.20208 0.32438,3.24406 1.55495,5.57795 1.80684,8.46667 m -13.22917,-23.28333 c -0.81968,2.59159 -1.32477,7.06384 -0.39687,11.1125 0.57996,2.53047 2.12116,5.54646 2.23837,7.9375 0.0444,0.90805 0.0106,1.47743 0.0106,2.38125 0,1.97194 -0.15742,3.81899 -0.52916,5.82083 m 4.23333,-27.25208 c 1.30757,2.35902 1.38086,7.87664 1.89309,12.17083 0.17304,1.45018 0.27014,3.86106 -0.19552,5.29167 -0.32121,0.98689 -0.69268,1.30942 -0.82127,1.85208 -0.23759,1.00436 -0.61807,3.25014 -0.8763,4.49792 m 1.85208,-5.82084 c 0.39185,0.54425 0.6784,1.0586 0.90858,2.38125 0.1913,1.09776 0.3474,2.32278 0.45906,3.43959 0.25056,2.50454 1.03716,5.43216 1.2782,7.40833"
         style="fill:none;stroke:#000000;stroke-width:0.566555;stroke-miterlimit:4;stroke-dasharray:none" />
      <path
         id="path949"
         d="m -805.48482,406.0195 c 1.14364,2.48248 3.42374,4.0868 4.41595,6.58058"
         style="fill:none;stroke:#000000;stroke-width:0.566555;stroke-linecap:square;stroke-linejoin:round;stroke-miterlimit:4;stroke-dasharray:none;paint-order:stroke fill markers" />
      <path
         id="path951"
         d="m -795.89036,405.69403 c 0.45736,2.19184 -0.2549,6.57829 1.69637,8.26172"
         style="fill:none;stroke:#000000;stroke-width:0.566555;stroke-linecap:square;stroke-linejoin:round;stroke-miterlimit:4;stroke-dasharray:none;paint-order:stroke fill markers" />
      <path
         id="path953"
         d="m -792.34193,413.95575 c 1.91148,-0.41489 3.70806,-2.11391 4.26741,-3.97605"
         style="fill:none;stroke:#000000;stroke-width:0.566555;stroke-linecap:square;stroke-linejoin:round;stroke-miterlimit:4;stroke-dasharray:none;paint-order:stroke fill markers" />
      <g
         style="fill:none;stroke:#000000;stroke-width:0.566555;stroke-miterlimit:4;stroke-dasharray:none"
         id="g1019">
        <path
           style="fill:none;stroke:#000000;stroke-width:0.566555;stroke-linecap:square;stroke-linejoin:round;stroke-miterlimit:4;stroke-dasharray:none;paint-order:stroke fill markers"
           d="m -795.35849,412.36697 c -5.91137,-1.08454 -3.38621,-8.80241 -0.60584,-11.72517 4.05279,4.83215 2.27285,9.4044 0.60584,11.72517"
           id="path933"
           sodipodi:nodetypes="ccc" />
        <path
           sodipodi:nodetypes="ccc"
           id="path937"
           d="m -800.89924,411.60584 c -5.94878,0.90549 -9.31734,-6.09202 -8.5277,-8.07001 7.96017,-0.88054 8.2774,5.10527 8.5277,8.07001"
           style="fill:none;stroke:#000000;stroke-width:0.566555;stroke-linecap:square;stroke-linejoin:round;stroke-miterlimit:4;stroke-dasharray:none;paint-order:stroke fill markers" />
        <path
           style="fill:none;stroke:#000000;stroke-width:0.566555;stroke-linecap:square;stroke-linejoin:round;stroke-miterlimit:4;stroke-dasharray:none;paint-order:stroke fill markers"
           d="m -792.34193,413.95576 c 5.94878,0.90549 7.73291,-4.81218 6.94327,-6.79017 -7.96872,1.58592 -6.69365,4.02045 -6.94327,6.79017"
           id="path939"
           sodipodi:nodetypes="ccc" />
        <path
           sodipodi:nodetypes="ccc"
           id="path941"
           d="m -676.60704,416.11082 c -9.11534,-2.36702 -5.43631,-14.58727 -0.92004,-17.24399 7.61456,9.58451 3.86737,14.53658 0.92004,17.24399"
           style="fill:none;stroke:#000000;stroke-width:0.566555;stroke-linecap:square;stroke-linejoin:round;stroke-miterlimit:4;stroke-dasharray:none;paint-order:stroke fill markers" />
        <path
           sodipodi:nodetypes="ccc"
           id="path943"
           d="m -656.25902,428.75921 c 11.09926,2.22874 15.56789,-6.20403 13.37936,-10.7443 -9.64948,0.67226 -12.57088,5.82646 -13.37936,10.7443"
           style="fill:none;stroke:#000000;stroke-width:0.566555;stroke-linecap:square;stroke-linejoin:round;stroke-miterlimit:4;stroke-dasharray:none;paint-order:stroke fill markers" />
        <path
           style="fill:none;stroke:#000000;stroke-width:0.566555;stroke-linecap:square;stroke-linejoin:round;stroke-miterlimit:4;stroke-dasharray:none;paint-order:stroke fill markers"
           d="m -692.30622,426.39502 c -9.66372,-1.2913 -9.82342,-10.57775 -7.42575,-15.59037 9.36782,3.72603 8.84968,11.27226 7.42575,15.59037"
           id="path945"
           sodipodi:nodetypes="ccc" />
        <path
           style="fill:none;stroke:#000000;stroke-width:0.566555;stroke-linecap:square;stroke-linejoin:round;stroke-miterlimit:4;stroke-dasharray:none;paint-order:stroke fill markers"
           d="m -539.35155,429.25782 c -4.23915,5.60791 -11.60551,-0.73989 -12.14351,-4.7055 8.78218,-2.32639 11.12163,1.8157 12.14351,4.7055"
           id="path955"
           sodipodi:nodetypes="ccc" />
        <path
           sodipodi:nodetypes="ccc"
           id="path957"
           d="m -538.82238,428.19949 c -0.17464,-7.02769 9.54201,-6.6472 12.43218,-3.8791 -5.42353,7.28863 -9.83323,5.50411 -12.43218,3.8791"
           style="fill:none;stroke:#000000;stroke-width:0.566555;stroke-linecap:square;stroke-linejoin:round;stroke-miterlimit:4;stroke-dasharray:none;paint-order:stroke fill markers" />
        <path
           style="fill:none;stroke:#000000;stroke-width:0.566555;stroke-linecap:square;stroke-linejoin:round;stroke-miterlimit:4;stroke-dasharray:none;paint-order:stroke fill markers"
           d="m -656.25902,428.75921 c 7.87586,-8.13214 3.19791,-16.45061 -1.8048,-17.06429 -4.65159,8.48098 -1.89517,13.72527 1.8048,17.06429"
           id="path959"
           sodipodi:nodetypes="ccc" />
        <path
           sodipodi:nodetypes="ccc"
           id="path961"
           d="m -656.25902,428.75921 c 2.23063,9.90235 10.17797,8.6271 12.8365,4.36179 -3.91113,-7.13697 -8.8357,-6.50563 -12.8365,-4.36179"
           style="fill:none;stroke:#000000;stroke-width:0.566555;stroke-linecap:square;stroke-linejoin:round;stroke-miterlimit:4;stroke-dasharray:none;paint-order:stroke fill markers" />
        <path
           style="fill:none;stroke:#000000;stroke-width:0.566555;stroke-linecap:square;stroke-linejoin:round;stroke-miterlimit:4;stroke-dasharray:none;paint-order:stroke fill markers"
           d="m -535.76285,403.82478 c -7.79101,-8.21347 -3.02694,-16.48293 1.98188,-17.04463 4.56328,8.52882 1.75255,13.7442 -1.98188,17.04463"
           id="path963"
           sodipodi:nodetypes="ccc" />
        <path
           sodipodi:nodetypes="ccc"
           id="path965"
           d="m -535.76285,403.82478 c 2.69719,-10.99482 12.22953,-11.45809 15.41014,-7.54817 -4.70758,8.45003 -10.61462,8.90531 -15.41014,7.54817"
           style="fill:none;stroke:#000000;stroke-width:0.566555;stroke-linecap:square;stroke-linejoin:round;stroke-miterlimit:4;stroke-dasharray:none;paint-order:stroke fill markers" />
        <path
           style="fill:none;stroke:#000000;stroke-width:0.566555;stroke-linecap:square;stroke-linejoin:round;stroke-miterlimit:4;stroke-dasharray:none;paint-order:stroke fill markers"
           d="m -535.76285,403.82478 c -9.57185,3.37814 -12.71915,-4.03003 -10.52133,-8.55001 8.12397,-0.48418 10.20873,4.02179 10.52133,8.55001"
           id="path967"
           sodipodi:nodetypes="ccc" />
        <path
           sodipodi:nodetypes="ccc"
           id="path969"
           d="m -676.60703,416.11082 c -7.31886,4.42524 -11.87262,-3.12766 -12.60826,-8.61517 8.27855,-2.25319 11.52969,4.2523 12.60826,8.61517"
           style="fill:none;stroke:#000000;stroke-width:0.566555;stroke-linecap:square;stroke-linejoin:round;stroke-miterlimit:4;stroke-dasharray:none;paint-order:stroke fill markers" />
        <path
           style="fill:none;stroke:#000000;stroke-width:0.566555;stroke-linecap:square;stroke-linejoin:round;stroke-miterlimit:4;stroke-dasharray:none;paint-order:stroke fill markers"
           d="m -682.17637,417.38463 c -9.71289,-2.94823 -12.52692,4.59284 -10.12985,9.01039 8.13748,0.12166 10.01935,-4.47275 10.12985,-9.01039"
           id="path973"
           sodipodi:nodetypes="ccc" />
        <path
           sodipodi:nodetypes="ccc"
           id="path975"
           d="m -707.05296,421.3575 c 7.31263,-1.96072 14.12138,0.0506 14.74674,5.03752 -6.543,4.83968 -12.01335,-1.41386 -14.74674,-5.03752"
           style="fill:none;stroke:#000000;stroke-width:0.566555;stroke-linecap:square;stroke-linejoin:round;stroke-miterlimit:4;stroke-dasharray:none;paint-order:stroke fill markers" />
        <path
           style="fill:none;stroke:#000000;stroke-width:0.566555;stroke-linecap:square;stroke-linejoin:round;stroke-miterlimit:4;stroke-dasharray:none;paint-order:stroke fill markers"
           d="m -676.60705,416.11081 c 7.31886,4.42524 11.87262,-3.12766 12.60826,-8.61517 -8.27855,-2.25319 -11.52969,4.2523 -12.60826,8.61517"
           id="path971"
           sodipodi:nodetypes="ccc" />
      </g>
      <path
         id="path977"
         d="m -695.23903,420.57036 c -0.18309,-1.18792 -0.77822,-2.89586 -1.34797,-4.22587"
         style="fill:none;stroke:#000000;stroke-width:0.566555;stroke-linecap:square;stroke-linejoin:round;stroke-miterlimit:4;stroke-dasharray:none;paint-order:stroke fill markers" />
      <path
         id="path979"
         d="m -700.68108,423.87109 c 2.17709,-0.25312 6.56362,4.06305 8.37488,2.52392"
         style="fill:none;stroke:#000000;stroke-width:0.566555;stroke-linecap:square;stroke-linejoin:round;stroke-miterlimit:4;stroke-dasharray:none;paint-order:stroke fill markers" />
      <path
         id="path981"
         d="m -692.3062,426.39501 c 0.80333,-2.6474 3.09562,-4.05403 5.24338,-5.39835"
         style="fill:none;stroke:#000000;stroke-width:0.566555;stroke-linecap:square;stroke-linejoin:round;stroke-miterlimit:4;stroke-dasharray:none;paint-order:stroke fill markers" />
      <path
         id="path983"
         d="m -684.32134,411.58136 c 2.41154,1.42766 5.59154,3.29475 7.71432,4.52945"
         style="fill:none;stroke:#000000;stroke-width:0.566555;stroke-linecap:square;stroke-linejoin:round;stroke-miterlimit:4;stroke-dasharray:none;paint-order:stroke fill markers" />
      <path
         id="path985"
         d="m -676.60704,416.11081 c 1.12088,-3.19127 7.54091,-2.58858 9.00808,-5.7962"
         style="fill:none;stroke:#000000;stroke-width:0.566555;stroke-linecap:square;stroke-linejoin:round;stroke-miterlimit:4;stroke-dasharray:none;paint-order:stroke fill markers" />
      <path
         id="path987"
         d="m -656.3892,417.25826 c 1.0759,3.0848 -1.35824,7.12033 -0.45574,10.04345 0.23672,0.76671 0.97112,0.71361 0.58592,1.45751"
         style="fill:none;stroke:#000000;stroke-width:0.566555;stroke-linecap:square;stroke-linejoin:round;stroke-miterlimit:4;stroke-dasharray:none;paint-order:stroke fill markers" />
      <path
         id="path989"
         d="m -656.25902,428.75922 c 1.76408,1.25555 3.95343,3.50049 6.62328,3.50049"
         style="fill:none;stroke:#000000;stroke-width:0.566555;stroke-linecap:square;stroke-linejoin:round;stroke-miterlimit:4;stroke-dasharray:none;paint-order:stroke fill markers" />
      <path
         id="path991"
         d="m -656.25902,428.75922 c 3.04257,-3.86705 8.26754,-4.27014 11.12006,-8.25273"
         style="fill:none;stroke:#000000;stroke-width:0.566555;stroke-linecap:square;stroke-linejoin:round;stroke-miterlimit:4;stroke-dasharray:none;paint-order:stroke fill markers" />
      <path
         sodipodi:nodetypes="cc"
         id="path993"
         d="m -543.05112,398.2069 c 1.20584,2.71788 6.76487,5.65018 7.28827,5.61787"
         style="fill:none;stroke:#000000;stroke-width:0.566555;stroke-linecap:square;stroke-linejoin:round;stroke-miterlimit:4;stroke-dasharray:none;paint-order:stroke fill markers" />
      <path
         sodipodi:nodetypes="cc"
         id="path995"
         d="m -535.76285,403.82477 c -0.83257,-3.35018 0.21743,-7.76102 0.21743,-11.70439"
         style="fill:none;stroke:#000000;stroke-width:0.566555;stroke-linecap:square;stroke-linejoin:round;stroke-miterlimit:4;stroke-dasharray:none;paint-order:stroke fill markers" />
      <path
         sodipodi:nodetypes="cc"
         id="path997"
         d="m -535.76285,403.82477 c 4.17996,-0.70265 6.67729,-6.3415 10.26919,-7.2032"
         style="fill:none;stroke:#000000;stroke-width:0.566555;stroke-linecap:square;stroke-linejoin:round;stroke-miterlimit:4;stroke-dasharray:none;paint-order:stroke fill markers" />
    </g>
    <path
       style="fill:none;stroke:#ff0000;stroke-width:1;stroke-linecap:square;stroke-linejoin:round;stroke-miterlimit:4;stroke-dasharray:none;paint-order:stroke fill markers"
       d="m -799.52086,423.06538 c 11.0367,-1.11585 21.31284,-1.41653 28.28908,1.29484 19.04839,7.40332 19.44362,5.24534 38.40403,13.86164 11.05285,5.02278 43.60103,9.09173 53.64513,14.11256 9.19759,4.59768 49.81302,-0.61194 61.82392,-2.8381 18.14134,-3.36243 40.60765,-3.62589 58.75503,-6.64284 17.06409,-2.83687 30.10495,-4.61824 47.66554,-5.88698"
       id="path1001"
       sodipodi:nodetypes="csssssc" />
    <path
       sodipodi:nodetypes="cc"
       id="path1036"
       style="fill:#ff0000;stroke:#ff0000;stroke-width:1;stroke-linecap:square;stroke-linejoin:round;stroke-miterlimit:4;stroke-dasharray:none;paint-order:stroke fill markers"
       d="m -605.64995,422.64245 v 10.7842" />
    <path
       d="m -513.59467,412.77946 c -4.37405,0 -8.74808,0 -13.12212,0"
       style="fill:#ff0000;stroke:#ff0000;stroke-width:1;stroke-linecap:square;stroke-linejoin:round;stroke-miterlimit:4;stroke-dasharray:none;paint-order:stroke fill markers"
       id="path1036-3" />
    <path
       d="m -527.36426,395.12006 c 0,11.96431 0,23.92864 0,35.89295"
       style="fill:#ff0000;stroke:#ff0000;stroke-width:1;stroke-linecap:square;stroke-linejoin:round;stroke-miterlimit:4;stroke-dasharray:none;paint-order:stroke fill markers"
       id="path1054" />
    <g
       aria-label="stem"
       transform="matrix(0.76606175,0,0,1.0166989,-74.979202,53.408757)"
       id="text1058"
       style="font-size:19.0009px;line-height:1.15;font-family:'Happy Times at the IKOB New Game Plus Edition';-inkscape-font-specification:'Happy Times at the IKOB New Game Plus Edition';font-variant-ligatures:no-contextual;fill:#ff0000;stroke:none;stroke-width:1.13311;stroke-linejoin:round;stroke-miterlimit:4;stroke-dasharray:none;paint-order:stroke fill markers">
      <path
         d="m -559.6944,351.59389 v -3.04015 h -0.68403 v 0.38002 h -0.19001 c -0.34201,-0.114 -1.10205,-0.38002 -1.93809,-0.38002 -1.63408,0 -2.85013,1.08305 -2.85013,2.54612 0,1.59608 0.98804,2.26111 2.41311,3.07815 1.12105,0.62703 2.29911,1.08305 2.29911,2.24211 0,0.83603 -0.55103,1.29206 -1.44407,1.29206 -1.61508,0 -2.62212,-1.19706 -2.62212,-2.50812 v -0.41802 h -0.68404 v 3.45816 h 0.68404 v -0.53202 h 0.19 c 0.30402,0.19001 1.10206,0.72203 2.43212,0.72203 1.82409,0 3.11615,-0.81704 3.11615,-2.62212 0,-1.71008 -1.17806,-2.47012 -3.21115,-3.49617 -1.12106,-0.58903 -1.65308,-0.98805 -1.65308,-1.78608 0,-0.81704 0.51302,-1.25406 1.44407,-1.25406 1.17805,0 2.01409,0.76003 2.01409,1.67208 v 0.64603 z"
         style="fill:#ff0000;stroke:none;stroke-width:1.13311"
         id="path1123" />
      <path
         d="m -554.34921,346.65365 h -0.19001 l -2.96414,2.66013 0.19001,0.19001 h 1.17806 v 6.76432 c 0,1.55807 0.57003,2.1661 1.74808,2.1661 1.17806,0 2.0521,-1.06405 2.50812,-1.59607 l -0.30401,-0.64604 c -0.34202,0.45603 -0.72204,0.91205 -1.33007,0.91205 -0.64603,0 -0.83604,-0.38002 -0.83604,-0.98805 v -6.61231 h 2.20411 v -0.76004 h -2.20411 z"
         style="fill:#ff0000;stroke:none;stroke-width:1.13311"
         id="path1125" />
      <path
         d="m -542.79696,354.44402 -0.45602,-0.26601 c -0.38001,1.21606 -1.02605,2.50812 -2.85013,2.50812 -2.1661,0 -3.19215,-1.90009 -3.19215,-3.99019 0,-0.11401 0,-0.22801 0.019,-0.34202 h 6.3273 c 0,-2.96414 -1.93809,-3.80018 -3.61017,-3.80018 -2.85014,0 -4.2182,2.77413 -4.2182,5.13025 0,2.66012 1.52007,4.75022 4.10419,4.75022 2.77413,0 3.72418,-2.62212 3.87618,-3.99019 z m -4.02819,-5.13024 c 1.21606,0 1.82409,0.87404 1.82409,2.0901 l -0.19001,0.19001 -4.00919,0.114 c 0.30402,-1.72908 1.46307,-2.39411 2.37511,-2.39411 z"
         style="fill:#ff0000;stroke:none;stroke-width:1.13311"
         id="path1127" />
      <path
         d="m -539.79838,357.40816 -0.19001,0.19001 h -1.29206 v 0.64603 h 4.63622 v -0.64603 h -1.17805 l -0.19001,-0.19001 v -6.3083 c 0.22801,-0.38001 1.02605,-1.36806 2.1281,-1.36806 1.10205,0 1.55807,0.76003 1.55807,1.78608 v 5.89028 l -0.19001,0.19001 h -1.17805 v 0.64603 h 4.52221 v -0.64603 h -1.17805 l -0.19001,-0.19001 v -6.19429 c 0.20901,-0.51303 1.02605,-1.48207 2.1281,-1.48207 1.10205,0 1.55807,0.76003 1.55807,1.78608 v 5.89028 l -0.19001,0.19001 h -1.17805 v 0.64603 h 4.52221 v -0.64603 h -1.17805 l -0.19001,-0.19001 v -6.19429 c 0,-1.82409 -1.14006,-2.66013 -2.47012,-2.66013 -1.52007,0 -2.39411,0.91205 -2.94514,1.67208 h -0.19001 c -0.34202,-1.14005 -1.27306,-1.67208 -2.33711,-1.67208 -1.52007,0 -2.39411,0.91205 -2.92614,1.63408 h -0.19001 l 0.13301,-1.44407 -0.19001,-0.19001 -3.13515,1.36807 0.30402,0.64603 1.02604,-0.43702 0.19001,0.19001 z"
         style="fill:#ff0000;stroke:none;stroke-width:1.13311"
         id="path1129" />
    </g>
    <path
       id="path1060"
       style="fill:#ff0000;stroke:#ff0000;stroke-width:1;stroke-linecap:square;stroke-linejoin:round;stroke-miterlimit:4;stroke-dasharray:none;paint-order:stroke fill markers"
       d="m -513.59467,454.22199 c -4.37405,0 -8.74808,0 -13.12212,0" />
    <path
       id="path1062"
       style="fill:#ff0000;stroke:#ff0000;stroke-width:1;stroke-linecap:square;stroke-linejoin:round;stroke-miterlimit:4;stroke-dasharray:none;paint-order:stroke fill markers"
       d="m -527.36426,442.67918 c 0,7.8203 0,15.6406 0,23.4609" />
    <g
       aria-label="root"
       transform="matrix(0.76606175,0,0,1.0166989,-74.979202,53.408757)"
       id="text1066"
       style="font-size:19.0009px;line-height:1.15;font-family:'Happy Times at the IKOB New Game Plus Edition';-inkscape-font-specification:'Happy Times at the IKOB New Game Plus Edition';font-variant-ligatures:no-contextual;fill:#ff0000;stroke:none;stroke-width:1.13311;stroke-linejoin:round;stroke-miterlimit:4;stroke-dasharray:none;paint-order:stroke fill markers">
      <path
         d="m -564.25461,399.19863 -0.19001,0.19001 h -1.29206 v 0.64603 h 4.86423 v -0.64603 h -1.40607 l -0.19001,-0.19001 v -5.43426 c 0.22801,-0.95004 0.72204,-1.55807 1.90009,-1.55807 h 1.17806 l 0.30401,-1.67208 -0.19001,-0.19001 -0.98804,0.076 c -1.21606,0.095 -1.9381,1.17806 -2.20411,2.28011 h -0.38002 l 0.38002,-2.1661 -0.19001,-0.19001 -3.11614,1.40607 0.30401,0.64603 1.02605,-0.45603 0.19001,0.19001 z"
         style="fill:#ff0000;stroke:none;stroke-width:1.13311"
         id="path1114" />
      <path
         d="m -558.348,395.28444 c 0,2.96414 1.86208,4.94024 4.59821,4.94024 2.77413,0 4.59822,-2.0901 4.59822,-4.97824 0,-2.92614 -1.86209,-4.90223 -4.59822,-4.90223 -2.77413,0 -4.59821,2.1091 -4.59821,4.94023 z m 2.09009,-0.57002 c 0,-2.16611 0.79804,-3.64818 2.28011,-3.64818 1.91909,0 2.73613,2.20411 2.73613,4.75023 0,2.2041 -0.79804,3.68617 -2.28011,3.68617 -1.90009,0 -2.73613,-2.2041 -2.73613,-4.78822 z"
         style="fill:#ff0000;stroke:none;stroke-width:1.13311"
         id="path1116" />
      <path
         d="m -547.47444,395.28444 c 0,2.96414 1.86209,4.94024 4.59822,4.94024 2.77413,0 4.59821,-2.0901 4.59821,-4.97824 0,-2.92614 -1.86208,-4.90223 -4.59821,-4.90223 -2.77414,0 -4.59822,2.1091 -4.59822,4.94023 z m 2.0901,-0.57002 c 0,-2.16611 0.79803,-3.64818 2.2801,-3.64818 1.9191,0 2.73613,2.20411 2.73613,4.75023 0,2.2041 -0.79803,3.68617 -2.2801,3.68617 -1.90009,0 -2.73613,-2.2041 -2.73613,-4.78822 z"
         style="fill:#ff0000;stroke:none;stroke-width:1.13311"
         id="path1118" />
      <path
         d="m -533.82675,388.44412 h -0.19001 l -2.96414,2.66012 0.19001,0.19001 h 1.17806 v 6.76432 c 0,1.55808 0.57002,2.16611 1.74808,2.16611 1.17805,0 2.0521,-1.06405 2.50812,-1.59608 l -0.30402,-0.64603 c -0.34201,0.45602 -0.72203,0.91204 -1.33006,0.91204 -0.64603,0 -0.83604,-0.38001 -0.83604,-0.98804 v -6.61232 h 2.20411 v -0.76003 h -2.20411 z"
         style="fill:#ff0000;stroke:none;stroke-width:1.13311"
         id="path1120" />
    </g>
  </g>
</svg>
