<?xml version="1.0" encoding="UTF-8" standalone="no"?>
<!-- Created with Inkscape (http://www.inkscape.org/) -->

<svg
   width="23.279633mm"
   height="23.279633mm"
   viewBox="0 0 23.279633 23.279633"
   version="1.1"
   id="svg1"
   xmlns="http://www.w3.org/2000/svg"
   xmlns:svg="http://www.w3.org/2000/svg">
  <defs
     id="defs1" />
  <g
     id="layer1"
     transform="translate(7.5509952,76.156342)">
    <rect
       style="fill:#f9f9f9;stroke:none;stroke-width:2.16255;stroke-linecap:round"
       id="rect6"
       width="6.3688045"
       height="23.279633"
       x="-36.639423"
       y="-76.156342" />
    <rect
       style="fill:#f9f9f9;stroke:none;stroke-width:2.16255;stroke-linecap:round"
       id="rect8"
       width="6.3688045"
       height="23.279633"
       x="-19.728596"
       y="-76.156342" />
    <rect
       style="fill:#f9f9f9;stroke:none;stroke-width:2.16255;stroke-linecap:round"
       id="rect9"
       width="6.3688045"
       height="23.279633"
       x="-28.18401"
       y="-76.156342" />
    <rect
       style="fill:#f9f9f9;stroke:none;stroke-width:2.74933;stroke-linecap:round"
       id="rect11"
       width="10.293976"
       height="23.279633"
       x="5.4346623"
       y="-76.156342" />
    <rect
       style="fill:#f9f9f9;stroke:none;stroke-width:1.90287;stroke-linecap:round"
       id="rect23"
       width="10.932912"
       height="10.5"
       x="-7.5509953"
       y="-63.376709" />
    <rect
       style="fill:#f9f9f9;stroke:none;stroke-width:1.90287;stroke-linecap:round"
       id="rect24"
       width="10.932912"
       height="10.5"
       x="-7.5509953"
       y="-76.156342" />
    <rect
       style="fill:#f9f9f9;stroke:none;stroke-width:2.16255;stroke-linecap:round"
       id="rect25"
       width="6.3688045"
       height="23.279633"
       x="-76.156342"
       y="-44.817066"
       transform="rotate(90)" />
    <rect
       style="fill:#f9f9f9;stroke:none;stroke-width:2.16255;stroke-linecap:round"
       id="rect26"
       width="6.3688045"
       height="23.279633"
       x="-59.245514"
       y="-44.817066"
       transform="rotate(90)" />
    <rect
       style="fill:#f9f9f9;stroke:none;stroke-width:2.16255;stroke-linecap:round"
       id="rect27"
       width="6.3688045"
       height="23.279633"
       x="-67.700928"
       y="-44.817066"
       transform="rotate(90)" />
    <rect
       style="fill:#f9f9f9;stroke:none;stroke-width:2.74933;stroke-linecap:round"
       id="rect28"
       width="10.293976"
       height="23.279633"
       x="-63.170685"
       y="-73.905502"
       transform="rotate(90)" />
    <rect
       style="fill:#f9f9f9;stroke:none;stroke-width:1.90287;stroke-linecap:round"
       id="rect29"
       width="10.932912"
       height="10.5"
       x="-76.156342"
       y="-61.125866"
       transform="rotate(90)" />
    <rect
       style="fill:#f9f9f9;stroke:none;stroke-width:1.90287;stroke-linecap:round"
       id="rect30"
       width="10.932912"
       height="10.5"
       x="-76.156342"
       y="-73.905502"
       transform="rotate(90)" />
  </g>
</svg>
